<?xml version="1.0" standalone="no"?>
<!DOCTYPE svg PUBLIC "-//W3C//DTD SVG 20010904//EN"
 "http://www.w3.org/TR/2001/REC-SVG-20010904/DTD/svg10.dtd">
<svg version="1.0" xmlns="http://www.w3.org/2000/svg"
 width="512.000000pt" height="512.000000pt" viewBox="0 0 512.000000 512.000000"
 preserveAspectRatio="xMidYMid meet">

<g transform="translate(0.000000,512.000000) scale(0.100000,-0.100000)"
fill="#000000" stroke="none">
<path d="M2480 4630 c-120 -21 -247 -97 -312 -186 -20 -27 -124 -225 -231
-440 -208 -416 -225 -442 -304 -463 -21 -6 -226 -38 -456 -71 -440 -64 -477
-73 -575 -137 -170 -114 -255 -362 -192 -565 34 -112 80 -166 415 -493 190
-185 323 -323 331 -342 8 -18 14 -49 14 -70 0 -21 -32 -222 -70 -448 -38 -225
-70 -437 -70 -470 0 -125 48 -243 138 -337 122 -128 268 -181 434 -158 89 13
120 27 568 263 327 172 348 181 400 181 52 0 76 -11 446 -206 215 -114 417
-214 448 -223 81 -24 204 -22 287 4 157 49 272 163 330 327 38 106 31 188 -49
652 -66 375 -71 416 -61 460 11 44 34 69 346 376 320 315 335 332 373 410 132
268 15 580 -258 691 -57 23 -104 31 -670 115 -150 22 -286 47 -301 55 -16 8
-41 29 -56 47 -15 18 -115 210 -221 426 -185 376 -197 396 -257 457 -121 120
-283 173 -447 145z m157 -321 c60 -22 85 -63 288 -474 127 -259 216 -425 239
-452 49 -56 147 -119 222 -142 33 -11 251 -47 485 -81 474 -69 484 -72 529
-152 30 -53 32 -127 5 -178 -10 -19 -168 -183 -351 -365 -364 -361 -369 -368
-400 -515 -19 -93 -20 -90 63 -570 36 -212 66 -408 66 -435 0 -118 -95 -197
-216 -182 -29 3 -160 67 -417 203 -206 108 -401 206 -435 217 -70 23 -215 27
-285 8 -25 -7 -223 -105 -440 -219 l-395 -207 -67 0 c-59 0 -70 3 -104 31 -55
44 -76 76 -81 125 -3 29 20 183 65 444 39 220 73 425 77 455 9 72 -15 186 -56
269 -34 70 -25 60 -460 489 -248 245 -269 272 -269 338 0 65 46 141 101 169
15 9 180 37 366 65 186 27 384 56 440 65 167 25 252 65 345 163 52 54 78 101
258 463 111 222 209 412 218 422 45 50 143 71 209 46z"/>
</g>
</svg>
